-- Merging decision tree log ---
manifest
ADDED from /home/ankit/AndroidStudioProjects/JsonParsingDemo-master/app/src/main/AndroidManifest.xml:2:1-27:12
	package
		ADDED from /home/ankit/AndroidStudioProjects/JsonParsingDemo-master/app/src/main/AndroidManifest.xml:3:5-41
		INJECTED from /home/ankit/AndroidStudioProjects/JsonParsingDemo-master/app/src/main/AndroidManifest.xml
		INJECTED from /home/ankit/AndroidStudioProjects/JsonParsingDemo-master/app/src/main/AndroidManifest.xml
	android:versionName
		INJECTED from /home/ankit/AndroidStudioProjects/JsonParsingDemo-master/app/src/main/AndroidManifest.xml
		INJECTED from /home/ankit/AndroidStudioProjects/JsonParsingDemo-master/app/src/main/AndroidManifest.xml
	xmlns:android
		ADDED from /home/ankit/AndroidStudioProjects/JsonParsingDemo-master/app/src/main/AndroidManifest.xml:2:11-69
	android:versionCode
		INJECTED from /home/ankit/AndroidStudioProjects/JsonParsingDemo-master/app/src/main/AndroidManifest.xml
		INJECTED from /home/ankit/AndroidStudioProjects/JsonParsingDemo-master/app/src/main/AndroidManifest.xml
uses-permission#android.permission.INTERNET
ADDED from /home/ankit/AndroidStudioProjects/JsonParsingDemo-master/app/src/main/AndroidManifest.xml:5:5-67
	android:name
		ADDED from /home/ankit/AndroidStudioProjects/JsonParsingDemo-master/app/src/main/AndroidManifest.xml:5:22-64
uses-permission#android.permission.WRITE_EXTERNAL_STORAGE
ADDED from /home/ankit/AndroidStudioProjects/JsonParsingDemo-master/app/src/main/AndroidManifest.xml:6:5-81
	android:name
		ADDED from /home/ankit/AndroidStudioProjects/JsonParsingDemo-master/app/src/main/AndroidManifest.xml:6:22-78
application
ADDED from /home/ankit/AndroidStudioProjects/JsonParsingDemo-master/app/src/main/AndroidManifest.xml:8:5-25:19
MERGED from [com.android.support:appcompat-v7:22.1.0] /home/ankit/AndroidStudioProjects/JsonParsingDemo-master/app/build/intermediates/exploded-aar/com.android.support/appcompat-v7/22.1.0/AndroidManifest.xml:22:5-20
MERGED from [com.android.support:support-v4:22.1.0] /home/ankit/AndroidStudioProjects/JsonParsingDemo-master/app/build/intermediates/exploded-aar/com.android.support/support-v4/22.1.0/AndroidManifest.xml:22:5-20
	android:label
		ADDED from /home/ankit/AndroidStudioProjects/JsonParsingDemo-master/app/src/main/AndroidManifest.xml:11:9-41
	android:allowBackup
		ADDED from /home/ankit/AndroidStudioProjects/JsonParsingDemo-master/app/src/main/AndroidManifest.xml:9:9-35
	android:icon
		ADDED from /home/ankit/AndroidStudioProjects/JsonParsingDemo-master/app/src/main/AndroidManifest.xml:10:9-43
	android:theme
		ADDED from /home/ankit/AndroidStudioProjects/JsonParsingDemo-master/app/src/main/AndroidManifest.xml:12:9-40
activity#com.hisham.jsonparsingdemo.MainActivity
ADDED from /home/ankit/AndroidStudioProjects/JsonParsingDemo-master/app/src/main/AndroidManifest.xml:13:9-21:20
	android:label
		ADDED from /home/ankit/AndroidStudioProjects/JsonParsingDemo-master/app/src/main/AndroidManifest.xml:15:13-45
	android:name
		ADDED from /home/ankit/AndroidStudioProjects/JsonParsingDemo-master/app/src/main/AndroidManifest.xml:14:13-41
intent-filter#android.intent.action.MAIN+android.intent.category.LAUNCHER
ADDED from /home/ankit/AndroidStudioProjects/JsonParsingDemo-master/app/src/main/AndroidManifest.xml:16:13-20:29
action#android.intent.action.MAIN
ADDED from /home/ankit/AndroidStudioProjects/JsonParsingDemo-master/app/src/main/AndroidManifest.xml:17:17-69
	android:name
		ADDED from /home/ankit/AndroidStudioProjects/JsonParsingDemo-master/app/src/main/AndroidManifest.xml:17:25-66
category#android.intent.category.LAUNCHER
ADDED from /home/ankit/AndroidStudioProjects/JsonParsingDemo-master/app/src/main/AndroidManifest.xml:19:17-77
	android:name
		ADDED from /home/ankit/AndroidStudioProjects/JsonParsingDemo-master/app/src/main/AndroidManifest.xml:19:27-74
activity#com.hisham.jsonparsingdemo.DetailActivity
ADDED from /home/ankit/AndroidStudioProjects/JsonParsingDemo-master/app/src/main/AndroidManifest.xml:22:9-24:70
	android:label
		ADDED from /home/ankit/AndroidStudioProjects/JsonParsingDemo-master/app/src/main/AndroidManifest.xml:24:13-58
	android:name
		ADDED from /home/ankit/AndroidStudioProjects/JsonParsingDemo-master/app/src/main/AndroidManifest.xml:23:13-43
uses-sdk
INJECTED from /home/ankit/AndroidStudioProjects/JsonParsingDemo-master/app/src/main/AndroidManifest.xml reason: use-sdk injection requested
MERGED from [com.android.support:appcompat-v7:22.1.0] /home/ankit/AndroidStudioProjects/JsonParsingDemo-master/app/build/intermediates/exploded-aar/com.android.support/appcompat-v7/22.1.0/AndroidManifest.xml:20:5-43
MERGED from [com.android.support:support-v4:22.1.0] /home/ankit/AndroidStudioProjects/JsonParsingDemo-master/app/build/intermediates/exploded-aar/com.android.support/support-v4/22.1.0/AndroidManifest.xml:20:5-43
	android:targetSdkVersion
		INJECTED from /home/ankit/AndroidStudioProjects/JsonParsingDemo-master/app/src/main/AndroidManifest.xml
		INJECTED from /home/ankit/AndroidStudioProjects/JsonParsingDemo-master/app/src/main/AndroidManifest.xml
	android:minSdkVersion
		INJECTED from /home/ankit/AndroidStudioProjects/JsonParsingDemo-master/app/src/main/AndroidManifest.xml
		INJECTED from /home/ankit/AndroidStudioProjects/JsonParsingDemo-master/app/src/main/AndroidManifest.xml
